What Does a Buoy in Southern Bering Sea Tell Us?
…
Cleaned tidy data

## # A tibble: 228,517 x 3
##    lubridate            ATMP  WTMP
##    <dttm>              <dbl> <dbl>
##  1 1988-01-01 02:00:00  2.00  2.70
##  2 1988-01-01 03:00:00  1.70  2.70
##  3 1988-01-01 04:00:00  2.00  2.70
##  4 1988-01-01 05:00:00  2.40  2.70
##  5 1988-01-01 06:00:00  2.40  2.70
##  6 1988-01-01 07:00:00  2.40  2.70
##  7 1988-01-01 08:00:00  2.50  2.70
##  8 1988-01-01 09:00:00  2.40  2.60
##  9 1988-01-01 10:00:00  2.00  2.50
## 10 1988-01-01 11:00:00  2.10  2.50
## # ... with 228,507 more rows
…
